%YAML 1.1
%TAG !u! tag:unity3d.com,2011:
--- !u!114 &11400000
MonoBehaviour:
  m_ObjectHideFlags: 0
  m_CorrespondingSourceObject: {fileID: 0}
  m_PrefabInstance: {fileID: 0}
  m_PrefabAsset: {fileID: 0}
  m_GameObject: {fileID: 0}
  m_Enabled: 1
  m_EditorHideFlags: 0
  m_Script: {fileID: 11500000, guid: 8094170c317614440b058ef73f0723ca, type: 3}
  m_Name: BootSettings
  m_EditorClassIdentifier: 
  bootTime: 1
  nextSceneIndex: 1
  managers:
  - {fileID: 9136212040306443723, guid: 25142385248406342a92658c99b4a6e1, type: 3}
  - {fileID: 5863009042571700620, guid: 66de71610dc441c40a9ae98897da02d9, type: 3}
  - {fileID: 3947192965795705010, guid: 78beaf6f241ff534da73278420c34043, type: 3}
